उपशीर्षक स्वचालित रूप से आई आई टी मद्रास भाषण लैब ए एस आर सिस्टम संस्करण एक करोड़बानवे हज़ारबीस का उपयोग कर उत्पन्न किया गया है
यह आज की रूपरेखा है
हम सिर्फ़ याद करेंगे क्यों फ़ाइबर ऑप्टिक्स सभी कम्युनिकेशन टेक्नोलॉजी के लिए रीढ़ की हड्डी है इस तरह की रीपिटिशन करने के लिए आपको किसी भी कम्युनिकेशन प्रणाली के लिए रीढ़ की हड्डी के रूप में ऑप्टिकल फ़ाइबर की आवश्यकता होती है
तब हमने इस बारे में चर्चा नहीं की कि हम पाठ्यक्रम में क्या कर रहे हैं
ताकि हम आज और पाठ्यक्रम के परिणामों को सीखेंगे पाठ्यक्रम के अंत में आप क्या कर पाएंगे
और फिर हम करेंगे
जैसा कि मैंने कहा कि यह एक कम्युनिकेशन टेक्नोलॉजी पाठ्यक्रम है
तो मैं जिस पूर्वापेक्षा की अपेक्षा कर रही हूं वह केवल सिग्नल और सिस्टम है
और कुछ बेसिक इलेक्ट्रोमैग्नेटिक्स एक प्लेन वेव की परिभाषा की सीमा तक और मैं यह मान रही हूं कि आप कुछ और नहीं जानते हैं
ताकि साइंस बैकग्राउंड और इंजीनियरिंग बैकग्राउंड के छात्र इस कोर्स को सही से सीख सकें
तो हम सिर्फ़ याद करेंगे कि कम्युनिकेशन युगों के दौरान कैसे विकसित हुआ
कम्युनिकेशन के कुछ बहुत मूल बातें मैं मान रही हूं कि आपने कोई कम्यूनिकेशन कोर्स नहीं किया है तो इसमें से कुछ प्राथमिक लग सकते हैं लेकिन मैं पूर्णता के लिए मानूंगी कि आपने कुछ भी नहीं किया है ताकि आप एक ही पृष्ठ पर हों
क्यों कम्युनिकेशन क्या वेव लेंथ्सय उपयोग किया जाता है
ऑप्टिकल कम्युनिकेशन क्यों ऑप्टिकल कम्युनिकेशन में उपयोग की जाने वाली वेव लेंथ्स क्या हैं
और डिजिटल मॉड्युलेशन योजनाओं पर कुछ प्राइमर
तो यह एक तस्वीर है जो दिखाती है ऑप्टिकल कम्युनिकेशन अब सभी विभिन्न प्रकार के कम्युनिकेशन के लिए एक रीढ़ की हड्डी के रूप में काम करेगा जो हम कर रहे हैं
आज जब हम कम्युनिकेशन कहते हैं यह वायरलेस कम्युनिकेशन का पर्याय है
जिस क्षण आप कम्युनिकेशन कह रहे हैं हम एक सेल फ़ोन के बारे में सोच रहे हैं या हम एक इंटरनेट की बात कर रहे हैं
तो यह पता चला है कि सेलुलर कम्युनिकेशन में आप अपने इंस्ट्रूमेंट से अपने टॉवर से कनेक्ट करते हैं और टॉवर से यह वास्तव में अलग अलग एक्सेस नोड्स से जुड़ जाता है
और एक्सेस नोड्स से यह मेट्रो नेटवर्क से जुड़ा हुआ है और मेट्रो नेटवर्क से जहां आप सूचना भेजने की कोशिश कर रहे हैं के आधार पर यह कोर नेटवर्क में आ सकता है और मेट्रो के माध्यम से कोर नेटवर्क के नोडल प्वाइंट्स से वापस मिल सकता है और उपयोगकर्ता उपकरण पर वापस
और हम जानते हैं कि पिछले कुछ वर्षों में सेल फ़ोन बैंडविंड्स बढ़ रहे हैं
और इसलिए ये सभी कनेक्टिविटी यहाँ से यहाँ तक नोडल प्वाइंट्स तक मेट्रो प्वाइंट्स और कोर तक और वापस
वह सब ऑप्टिकल कम्युनिकेशन की मदद से किया जाता है
अब वह केवल सेलुलर कम्युनिकेशन है
अब डेटा केंद्रों के बारे में क्या
जब आप इंटरनेट का उपयोग कर रहे हैं तो आप अपनी क्लाउड सेवाओं का उपयोग कर रहे हैं
आपकी सभी जानकारी को डेटा केंद्र के रूप में संग्रहीत किया जाता है
जो दूरस्थ स्थान पर फिजिकल रूप से हो सकता है
और हर बार जब आप अपने कंप्यूटर से अपने लैपटॉप से डेटा सेंटर से जुड़ रहे होते हैं
हो सकता है कि आप लैन से एक कनेक्शन बना रहे हों आप का लोकल एरिया नेटवर्क आप जानते हैं जहां भी आप एक्सेस प्वाइंट से
और एक्सेस प्वाइंट से जहां डेटा सेंटर स्थित है मेट्रो के माध्यम से डेटा सेंटर तक और वापस रूट किया जा सकता है
और यह कम्युनिकेशन भी एक ऑप्टिकल फ़ाइबर के माध्यम से किया जाता है
और सिर्फ़ डाटा सेंटर के लिए नहीं
अब डेटा सेंटर के बीच डेटा सेंटर के विभिन्न रैक के बीच लोगों ने ऑप्टिकल फ़ाइबर का उपयोग करना शुरू कर दिया है
सर्वर के मदरबोर्ड के बीच लोगों ने ऑप्टिकल फ़ाइबर का उपयोग करना शुरू कर दिया है क्योंकि यह सबसे उच्च गति कम्युनिकेशन लिंक है जो उपलब्ध हैं
अब अपने घर के बारे में सोचें आप घर में टेलीविज़न देख रहे हैं
आपके पास एच डी टी वी है आप जानते हैं मांग पर टी वी आपके पास आपका नेटफ़्लिक्स है जिसे आप अपने टीवी पर देख रहे हैं
या आपके पास अपना अमेजॉन प्राइम है या आप जानते हैं कोई भी वीडियो ऑन डिमांड
जो हर घर हर छात्रावास में जहाँ आप हैं आप हाई स्पीड कम्युनिकेशन लाइन के माध्यम से जुड़े हुए हैं
और वह हाई स्पीड कम्युनिकेशन लाइन एक्सेस नेटवर्क से होकर जाती है सभी घरों से एफ़ टी टी एच लिंग के माध्यम से जुड़े हुए हैं
एफ़ टी टी एच क्या है
घर के लिए फ़ाइबर
तो घर पर फ़ाइबर फ़ाइबर जो घर पर आता है वह वास्तव में आपके टेलीविज़न सिग्नल को ले जा सकता है
आपके इंटरनेट सिग्नल को
आपके टेलीफ़ोन सिग्नल को
सभी एक ही फ़ाइबर में समेकित हो सकते हैं यह आपके अपार्टमेंट तक पहुंच सकता है
और अपार्टमेंट के भीतर यह ऑप्टिकल फ़ाइबर के माध्यम से वितरित हो जाता है
यदि आप नए टाटा स्काई या इस तरह के किसी भी वीडियो ऑन डिमांड कनेक्शन लेते हैं तो आपको अपने घर के अंदर एक ऑप्टिकल फ़ाइबर दिखाई देगा
और वहां से फिर से सब कुछ ऑप्टिकल फ़ाइबर के माध्यम से जुड़ रहा है
इनमें से प्रत्येक लिंक के लिए नेटवर्क टोपोलॉजी बहुत अलग हैं
तो यह उस कोर्स का एक हिस्सा है जो हम करेंगे कि नेटवर्क टोपोलॉजी का उपयोग आप किस तरह से एक्सेस नेटवर्क बनाम मेट्रो नेटवर्क बनाम एक लंबी दूरी के नेटवर्क के लिए करेंगे
लेकिन आप जानते हैं कि फंडामेंटल बैकबोन जो उच्च डेटा दर के साथ कार्य करता है एक ऑप्टिकल फ़ाइबर है
और यहां तक कि सैटेलाइट से बेस से सैटेलाइट तक आपके पास निश्चित रूप से एक फ़्री स्पेस लिंक होगा
लेकिन अगर आप इसे एक अलग जियोग्राफिकल स्थान पर परिवहन करना चाहते हैं तो आप फिर से एक ऑप्टिकल फ़ाइबर का उपयोग करेंगे
ठीक है तो इससे कोई फ़र्क नहीं पड़ता कि यह एक वायरलेस सैटेलाइट इंटरनेट है सभी कम्युनिकेशन लिंक इस तथ्य को दोहराते हैं कि सभी कम्युनिकेशन लिंक के लिए बैकबोन एक ऑप्टिकल फ़ाइबर है
और इस तरह का जस्टिफिकेशन है कि आपको सिस्टम स्तर पर इस पाठ्यक्रम को करने का प्रयास क्यों करना चाहिए
जैसा कि मैंने पहले कहा था कि मैं डिजिटल कम्युनिकेशन पर किसी पूर्वापेक्षा की अपेक्षा नहीं कर रही हूं
या जब आप इस कोर्स को कर रहे हों तो मॉड्यूलेशन और कोडिंग के किसी भी प्रकार के पूर्वापेक्षाएँ
तो हम उन सभी मूल बातों को करने की कोशिश करेंगे जो हमारे लिए आवश्यक हैं
और जैसा कि मैंने पहले कहा था कि हम फंक्शंस को ब्लॉक डायग्राम के रूप में देख रहे हैं
केवल आवश्यक होने पर हम विस्तृत फिजिक्स में शामिल होंगे कि एक निश्चित ब्लॉक कैसे काम करता है
पाठ्यक्रम की सामग्री
तो पहले हम इस प्रक्रिया से गुज़र रहे हैं ऑप्टिकल कम्युनिकेशन के लिए प्रेरणा
डिजिटल मॉड्यूलेशन योजनाओं का परिचय जो हम आज करेंगे
हम यह भी देखने का प्रयास करेंगे कि ऑप्टिकल कम्युनिकेशन प्रणाली का एक बड़ा ब्लॉक डायग्राम कैसे काम करता है
फिर हम बात करेंगे ब्लॉक डायग्राम में हमेशा एक ट्रांसमीटर चैनल और एक रिसीवर होगा
आप वहां से सिग्नल ट्रांसमिट कर रहे हैं सिग्नल एक निश्चित चैनल के माध्यम से इस मामले में एक ऑप्टिकल फ़ाइबर चैनल के माध्यम से प्रचारित होता है
और आपके पास एक रिसीवर है जो जानकारी प्राप्त करने की उम्मीद करता है आप जो भी भेजते हैं उसे डीमॉड्युलेट करें और रिकवरी करें
मेरा मतलब है कि रिकवरी आपके डिमॉड्यूलेशन का एक हिस्सा है
तो पाठ्यक्रम का अगला भाग पहला भाग ट्रांसमीटर होगा
ऑप्टिकल कम्युनिकेशन के लिए आप किस तरह के ट्रांसमीटरों का उपयोग कर सकते हैं
किस प्रकार के ट्रांसमीटर का उपयोग आप विशिष्ट आवश्यकताओं के लिए करेंगे
आपके पास संभावनाओं की एक एरे है जिसमें आप ऑप्टिमल ट्रांसमीटर कैसे लेते हैं
अब क्रिटिकल पैरामीटर्स जैसे कि वेवलेंथ मॉड्यूलेशन बेंडविड्थ एटेन्युएशन आदि
दूसरा भाग रिसीवर है
आप किस प्रकार के रिसीवर का उपयोग कर सकते हैं
क्या आपको एक फ़ोटोडायोड का उपयोग करना चाहिए क्या आप एक एवलेंच फ़ोटोडायोड का उपयोग करेंग
क्या आप डायरेक्ट डिटेक्शन स्कीम का उपयोग करेंगे क्या आप एक कोहरेंट डिटेक्शन स्कीम का उपयोग करेंगे
और इससे भी महत्वपूर्ण बात यह है कि आप पूरी प्रक्रिया में शामिल किए गए नौएस
जब हम ट्रांसमीट कर रहे हैं तो हम चिंता करेंगे कि ट्रांसमीटर में नौएस के सोर्स क्या हैं
हम देखेंगे कि रिसीवर में नौएस के सोर्स क्या हैं
और तीसरा महत्वपूर्ण भाग है आपने ट्रांसमीटर किया था आपने रिसीवर किया था तब आप चैनल के बारे में बात करते हैं
हालांकि सामान्य रूप से ऑप्टिकल कम्युनिकेशन का मतलब फ़ाइबर चैनल नहीं होगा इस कोर्स में हम केवल फ़ाइबर चैनल करने जा रहे हैं
लेकिन आप जो भी सीख रहे हैं वह एक मुक्त अंतरिक्ष चैनल के लिए निकाला जा सकता है क्योंकि मूल बिल्डिंग ब्लॉक समान रहेंगे
फ़ाइबर में हम बात करेंगे कि लाइट गाइडेंस का सिद्धांत क्या है फ़ाइबर के मोड क्या हैं
ऐसे कौन से इम्पेरमेंट्स हैं जो फ़ाइबर के कारण होते हैं आपको लगता है कि फ़ाइबर एक ग्लास सिलिका फ़ाइबर है यह आपके सिग्नल को विकृत नहीं करता है न कि यह गलत है
आपके पास कई डिस्टोरशन हैं जो फ़ाइबर द्वारा पेश की जाती हैं
डिस्टोरशन की प्रकृति क्या है अब आप उन डिस्टोरशन का सामना कैसे करते हैं
आप डिस्टोरशन को कैसे समझते हैं और आप उन डिस्टोरशन को कैसे ठीक करते हैं इस प्रकार यह पाठ्यक्रम का तीसरा भाग होगा
चौथा भाग आप अभी अनुमान लगा सकते हैं मेजर डिस्टोरशन एटेन्युएशन होने जा रहा है
तो आप उस एटेन्युएशन को कैसे ठीक करते हैं आप ऑप्टिकल फ़ाइबर में सिग्नल लॉस की समस्या को कैसे ठीक करते हैं
तो आप ऑप्टिकल एम्पलीफ़ायरों के बारे में थोड़ा जानेंगे कि एम्पलीफ़ायरों के प्रकार क्या हैं जिनका उपयोग कर सकते हैं
क्या आपको ट्रांसमीटर को एम्पलीफ़ायर में रखने की आवश्यकता है क्या आपको मिड स्पैन में एम्पलीफ़ायर रखने की आवश्यकता है
क्या आपको रिसीवर में एम्पलीफ़ायर रखने की आवश्यकता है उस स्थिति के आधार पर आपको न्याय करने में सक्षम होना चाहिए आपको यह पता लगाने में सक्षम होना चाहिए कि एम्पलीफ़ायर को कहां रखा जाना चाहिए ऑप्टिमल स्थान क्या हैं
और एम्पलीफ़ायर द्वारा पेश किए गए इम्पेरमेंट्स क्या हैं
कोई भी एम्पलीफ़ायर यहां तक कि एक इलेक्ट्रॉनिक एम्पलीफ़ायर संकेत को प्रवर्धित करता है लेकिन साथ ही साथ सिग्नल टू नॉइस रेशियो तक कम करता है
इसलिए सिग्नल टू नॉइस रेशियो में गिरावट क्या है
और इन एम्पलीफ़ायरों के ऑप्टिमल प्लेसमेंट द्वारा कम से कम करने के लिए क्या एक रास्ता है क्या मैं गिरावट को कम कर सकता हूं
तो वे चीज़ें हैं जो आप एम्पलीफ़ायर मॉड्यूल में सीखेंगे
तो आपके पास लिंक बनाने के लिए अब सभी सामग्रियां थीं
आपके पास ट्रांसमीटर है आपके पास चैनल है आपके पास एम्पलीफ़ायर है आपके पास रिसीवर है
तो अगला विषय क्या होना चाहिए अगला विषय क्या होगा
लिंक बनाने से पहले आपको यह भी पता लगाना होगा कि क्या अन्य कंस्टिट्येंट हैं
क्योंकि आप जानते हैं कि आपने एक नेटवर्क के बारे में बात की है और हमने ऑप्टिकल कम्युनिकेशन द्वारा प्रस्तावित उच्च बैंडविड्थ के बारे में भी बात की
हमने ऑप्टिकल कम्युनिकेशन में मल्टीप्लेक्सिंग सूचना के बारे में भी बात की जिसका अर्थ है कि आपको एक नेटवर्क में कुछ चैनल्स को छोड़ने की आवश्यकता है कुछ चैनल्स को जोड़ने की आवश्यकता है
तो आपको पूरे सिस्टम में कुछ अन्य कंस्टिट्येंटों की भी आवश्यकता होगी
तो आप फ़ाइबर ब्रैग ग्रैटिंग्स पर ऐड ड्रॉप मल्टीप्लेक्सर्स रीकंफ़िगरेबल ऐड ड्रॉप मल्टीप्लेक्सर्स पावर स्प्लिटर्स एरेयर्ड वेवगाइड ग्रेट्स को केवल फ़ंक्शनल ब्लॉक डायग्राम में देखेंगे
ताकि ये एक तरह के उपकरण हों जिनका उपयोग करके आप अपना पूरा लिंक बना सकें
एक बार लिंक बनाने के लिए आपके पास सभी उपकरण होंगे तो आप अगली बार एक लिंक डिज़ाइन करेंगे
आप दूरी के आधार पर एक प्वाइंट टू प्वाइंट लिंक करते हैं आप ऑप्टिमाइज़ करेंगे कि वे कौन से तत्व हैं जो आप सही लेज़र को चुनेंगे आप सही रिसीवर को चुनेंगे ताकि लिंक ऑप्टिमल हो
आपको हमेशा सबसे बड़ी बैंडविड्थ के लिए एक लिंक डिज़ाइन करने की आवश्यकता नहीं है
आपको लिंक को कम से कम लागत के लिए डिज़ाइन करना होगा
तो फिर से मैं दोहराती हूं कि हमने इसके बारे में पहले बात की थी
टेक्नोलॉजी पाठ्यक्रम आप प्रदर्शन को अनुकूलित करने के अलावा लागत ऊर्जा के बारे में भी चिंतित हैं
तो हम उस बारे में बात करेंगे और हम डब्ल्यू डी एम लिंक्स में डब्लू डी एम लिंक डिस्पर्स मैनेजमेंट के बारे में भी बात करेंगे
हम उनके बारे में विस्तार से बात करेंगे
तब बहुत नया हिस्सा जो आज के ऑप्टिकल कम्युनिकेशन टेक्नोलॉजी के लिए रेलेवेंट है डिजिटल सिग्नल प्रोसेसिंग है
आपकी जानकारी हम विस्तार से बात करेंगे कि आपको डिजिटल सिग्नल प्रोसेसिंग की आवश्यकता क्यों है
लेकिन यह एक महत्वपूर्ण कंस्टिट्येंट है और हम कुछ डिजिटल सिग्नल प्रोसेसिंग एल्गोरिदम को देखेंगे जो विशेष रूप से ऑप्टिकल कम्युनिकेशन के लिए आवश्यक हैं
और आखिरी हिस्सा संभवतः पाठ्यक्रम के अंतिम दो हफ़्तों में होगा
प्वाइंट टू प्वाइंट लिंक करने के बाद हम विभिन्न नेटवर्क टोपोलॉजी के बारे में बात करेंगे
अब आप नेटवर्क कैसे डिज़ाइन करते हैं अब आप फिजिकल लेयर से कम्युनिकेशन की थोड़ी ऊँची परत में जा रहे हैं जिसे आप नेटवर्क लेयर पर ले जाते हैं
और देखते हैं कि डेटा सेंटर लिंक के लिए शॉर्ट डिस्टेंस लिंक के लिए नेटवर्क टोपोलॉजी के विभिन्न प्रकार क्या संभव हैं एक लंबी दूरी के लिंक के लिए और इतने पर कि पाठ्यक्रम को पूरा करेगा
तो ट्रांसमीटर चैनल अवयव रिसीवर लिंक नेटवर्क टोपोलॉजी तो पूरे संरचना
आह
रेफ्रंस प्रोफ़ेेसर जी पी अग्रवाल फ़ाइबर ऑप्टिक कम्युनिकेशन सिस्टम्स के लिए एक अच्छी पुस्तक है मुझे लगता है कि चौथा संस्करण इस पुस्तक का नवीनतम संस्करण है हम उस सब कुछ को कवर नहीं करेंगे जो पुस्तक में है
और जो मैं पढ़ा रही हूं वह केवल उस पुस्तक से नहीं है
लेकिन यह आपके लिए रेफर करने के लिए एक अच्छी सामग्री होगी
फिर जहां तक ऑप्टिकल फ़ाइबर इम्पेयरमेंट्स आदि का सवाल है
अच्छा रेफ्रंस प्रोफ़ेसरों कंस्टिट्येंट और त्यागराज द्वारा फ़ाइबर ऑप्टिक्स पुस्तक का परिचय है
इसके बाद कैज़र द्वारा एक सिस्टम स्तर की पुस्तक है
मैं कहूंगा कि कोहरेंट कम्युनिकेशन भाग कैज़र में शामिल नहीं है
तो मैंने आपको वास्तव में एक रेफ्रंस नहीं दिया है जहां हम कोहेरेंस कम्युनिकेशन के बारे में बात कर रहे हैं क्योंकि हम उस हिस्से को कर रहे हैं जो मैं आपको ऑप्टिकल कोएरेंट कम्युनिकेशन के लिए विशिष्ट रेफ्रंस देगा
इन सभी को ज़्यादातर इंटेन्सिटी मॉड्यूलेशन डायरेक्ट डिटेक्शन सिस्टम के साथ करना है
यह एक अच्छा रीड है जो ऑप्टिकल कम्युनिकेशन के इतिहास को रिकॉर्ड करने की तरह है और विभिन्न कंस्टिट्येंटों का विकास कैसे हुआ
यह एक रेफ्रंस नहीं है जैसा कि सामान्य पढ़ा जाता है हमारे समय में प्रकाशिकी यह स्प्रिंगर द्वारा प्रकाशित एक नई पुस्तक है
बहुत हल्का पढ़ा
ठीक है तो
आपके द्वारा यह पूरा कोर्स करने के बाद सीखने के परिणाम क्या होंगे
तो आप अनुमान लगा सकते हैं कि सभी परीक्षाओं के मूल्यांकन परीक्षण करने जा रहे हैं कि क्या आपने इन परिणामों को प्राप्त किया है
तो यही कारण है कि मैं आपको यह दिखा रही हूं आपको ऑप्टिकल कम्युनिकेशन की आवश्यकता समझाने में सक्षम होना चाहिए
आप ऑप्टिकल कम्युनिकेशन के लाभ और सीमाओं का वर्णन करने में सक्षम होना चाहिए
आप ऑप्टिकल ट्रांसमीटरों के प्रकारों की पहचान करने में सक्षम होना चाहिए उनके गुणों को मॉड्युलेशन योजनाएं जिन्हें आपको प्राप्त करने में सक्षम होना चाहिए
डेमोड्यूलेशन योजनाओं में नौएस के सोर्सों की पहचान करने में सक्षम होना चाहिए
यह दोनों इंटेन्सिटी मॉड्युलेशन के लिए है और सुसंगत मॉड्युलेशन के लिए भी है
आपको फ़ाइबर चैनल के गुणों की व्याख्या करने में सक्षम होना चाहिए
आपको विभिन्न मल्टीप्लेक्सिंग योजनाओं की व्याख्या करने में सक्षम होना चाहिए
तो मल्टीप्लेक्सिंग स्कीम का मतलब होगा टाइम डिवीज़न वेवलेंथ एमिशन स्पेस डिवीज़न पोलराइजेशन डिवीज़न अलग मल्टीप्लेक्सिंग स्कीम
और आपको प्वाइंट टू प्वाइंट लिंक डिज़ाइन करने और ट्रेडऑफ़ का मूल्यांकन करने में सक्षम होना चाहिए
मुझे किस प्रकार की मल्टीप्लेक्सिंग योजना का उपयोग करना चाहिए
ट्रेडऑफ़ क्या है अगर मैं इसका उपयोग करता हूं लाभ क्या है नुकसान क्या है
आप एक लिंक का मूल्यांकन और डिज़ाइन करने के समझ से आगे बढ़ रहे हैं
ठीक है
फिर से बताएं कि जहां तक नेटवर्क का संबंध है आपको ऑप्टिकल कम्युनिकेशन के लिए नेटवर्क टोपोलॉजी की व्याख्या करने में सक्षम होना चाहिए
जैसा कि मैंने पहले कहा था निर्भर करता है कि अगर यह फ़ाइबर टू द होम लिंक या यह कोर नेटवर्क हैं
अगर यह एक मेट्रो नेटवर्क है किस प्रकार के टोपोलॉजी का उपयोग करना चाहिए और इसका विश्लेषण भी करना चाहिए
हम इनेक्टिव ऑप्टिकल नेटवर्क पर थोड़ा तनाव देंगे
क्योंकि वे नेटवर्क हैं जो आज सबसे व्यापक रूप से तैनात होने जा रहे हैं
यह कोर नेटवर्क नहीं है यह इनेक्टिव ऑप्टिकल लिंक है जो व्यापक रूप से तैनात होने जा रहे हैं
तो फ़ाइबर की सबसे बड़ी मात्रा में तैनाती होने जा रही है वायरलेस कम्युनिकेशन अधिकार का समर्थन करना
और वे सभी इनेक्टिव लिंक हैं आदर्श रूप से पासिंग लिंक होना चाहिए
तो हम एक इनेक्टिव ऑप्टिकल लिंक के प्रदर्शन मेट्रिक्स क्या हैं इसके बारे में थोड़ा और विस्तार से जानेंगे तो यह सीखने का परिणाम है
