,en,ta,pos
,online learning,online learning,noun
,supervised learning,supervised learning,noun
,matrix,matrix,noun
,algorithms,algorithms,noun
,natural mapping,natural mapping,noun
,offline settings,offline settings,noun
,learning setups,learning setups,noun
,proofs,proofs,noun
,binary,binary,noun
,classification,classification,noun
,instance,instance,noun
,label,label,noun
,stock,stock,noun
,domain,domain,noun
,script x,script x,noun
,humidity value,humidity value,noun
,temperature value,temperature value,noun
,binary case,binary case,noun
,script,script,noun
,humidity,humidity,noun
,learner,learner,noun
,hypothesis class,hypothesis class,noun
,hypothesis,hypothesis,noun
,rule,rule,noun
,rules,rules,noun
,training data,training data,noun
,object,object,noun
,data point,data point,noun
,associated label,associated label,noun
,arbitrary,arbitrary,noun
,distribution D,distribution D,noun
,features,features,noun
,feature set,feature set,noun
,label function,label function,noun
,function,function,noun
,prediction error,prediction error,noun
,test error,test error,noun
,random variable,random variable,noun
,feature vector,feature vector,noun
